…
The p-value for the test about the variable hp is 0.1875186, and it is obtained with sm1$coefficients[3,4].

The general way, as you guessed it, is (notice the crucial $)

name-of-object$internal-object

Of course, two of the examples above added some extra []. This depends on the class of the “internal” object and is necessary because we needed to further subset a part of the “internal” object. For instance, sm1$coefficients is a matrix. To subset it, we give the row and column position(s) that of the coefficient of interest inside the [].

Last example. m1 contains the fitted values of the model. We could obtain them by using the estimated parameters multiplied by the values of the variables, as follows.

library(tibble) # because it prints much better than data.frame
tibble(fit_method1 = m1$fitted.values,
       fit_method2 = m1$coefficients[1] + m1$coefficients[2]*mtcars$cyl + m1$coefficients[3] * mtcars$hp + m1$coefficients[4]*mtcars$gear + m1$coefficients[5]*mtcars$am + m1$coefficients[6]*mtcars$carb)

## # A tibble: 32 × 2
##    fit_method1 fit_method2
##          <dbl>       <dbl>
##  1        22.3        22.3
##  2        22.3        22.3
##  3        27.5        27.5
##  4        20.7        20.7
##  5        16.5        16.5
##  6        20.8        20.8
##  7        12.6        12.6
##  8        23.9        23.9
##  9        23.1        23.1
## 10        18.6        18.6
## # … with 22 more rows
…
