…
The analysis of the output, though very similar to the case of the linear model, goes beyond the scope of this note. Recall, however, the major difference with respect to the linear model: the
\(\beta\) coefficients are not the marginal effects of the variable on the probability of the observation being a one.

Predicted Probabilities

The models’ predicted probabilities for each observation can be obtained in various ways, including in ways very similar to the linear model (see this post).

Fitted Values

The fitted values of the model are the predicted probabilities for each observation in the data set. To obtain them, simply call the object from the estimated model with the name fitted.values. Here,

l1$fitted.values %>%
  as_tibble()

## # A tibble: 714 × 1
##     value
##     <dbl>
##  1 0.105 
##  2 0.914 
##  3 0.557 
##  4 0.921 
##  5 0.0679
##  6 0.320 
##  7 0.198 
##  8 0.548 
##  9 0.876 
## 10 0.739 
## # … with 704 more rows

Using predict.glm() on Model’s Data

This function is similar to predict() that we used for the linear model, but it allows further tweaks related to generalized linear models.

To fine-tune the use for these models, we need to use an additional argument: type = "response". This ensures that the predictions are in terms of the \(y\) variable, i.e., probabilities.

Out of the box we get these predicted probabilities by giving also the estimated “glm” object to the function.

predict.glm(l1, type = "response") %>%
  as_tibble

## # A tibble: 714 × 1
##     value
##     <dbl>
##  1 0.105 
##  2 0.914 
##  3 0.557 
##  4 0.921 
##  5 0.0679
##  6 0.320 
##  7 0.198 
##  8 0.548 
##  9 0.876 
## 10 0.739 
## # … with 704 more rows
…
