…
Then I create the “other things equal except disp”.

new.df.D <- mtcars %>%
  select(disp , hp,  cyl , am , carb, mpg) %>%
  mutate(disp = disp, # keeps the value of disp in the sample
         hp =  mean.or.mode(hp),
         cyl = mean.or.mode(cyl),
         am = mean.or.mode(am),
         carb = mean.or.mode(carb)
         )

new.df.D %>%
  as_tibble()

## # A tibble: 32 × 6
##     disp    hp cyl   am         carb   mpg
##    <dbl> <dbl> <fct> <fct>     <dbl> <dbl>
##  1  160   147. 8     automatic  2.81  21  
##  2  160   147. 8     automatic  2.81  21  
##  3  108   147. 8     automatic  2.81  22.8
##  4  258   147. 8     automatic  2.81  21.4
##  5  360   147. 8     automatic  2.81  18.7
##  6  225   147. 8     automatic  2.81  18.1
##  7  360   147. 8     automatic  2.81  14.3
##  8  147.  147. 8     automatic  2.81  24.4
##  9  141.  147. 8     automatic  2.81  22.8
## 10  168.  147. 8     automatic  2.81  19.2
## # … with 22 more rows
…
The procedure is the same as above, though now the variable that does not stay constant is hp. First, create a new evaluation data set.

new.df.F <- mtcars %>%
  select(disp , hp,  cyl , am , carb, mpg) %>%
  mutate(hp = hp, # keeps the value of hp in the sample
         disp =  mean.or.mode(disp),
         cyl = mean.or.mode(cyl),
         am = mean.or.mode(am),
         carb = mean.or.mode(carb)
         )

new.df.F %>%
  as_tibble()

## # A tibble: 32 × 6
##     disp    hp cyl   am         carb   mpg
##    <dbl> <dbl> <fct> <fct>     <dbl> <dbl>
##  1  231.   110 8     automatic  2.81  21  
##  2  231.   110 8     automatic  2.81  21  
##  3  231.    93 8     automatic  2.81  22.8
##  4  231.   110 8     automatic  2.81  21.4
##  5  231.   175 8     automatic  2.81  18.7
##  6  231.   105 8     automatic  2.81  18.1
##  7  231.   245 8     automatic  2.81  14.3
##  8  231.    62 8     automatic  2.81  24.4
##  9  231.    95 8     automatic  2.81  22.8
## 10  231.   123 8     automatic  2.81  19.2
## # … with 22 more rows
…
